…
``` r
problem_2_df
```

    ## # A tibble: 160 x 4
    ##    arm        id  week observations
    ##    <fct>   <dbl> <dbl>        <dbl>
    ##  1 control     1     1         0.2 
    ##  2 control     1     2        -1.31
    ##  3 control     1     3         0.66
    ##  4 control     1     4         1.96
    ##  5 control     1     5         0.23
    ##  6 control     1     6         1.09
    ##  7 control     1     7         0.05
    ##  8 control     1     8         1.94
    ##  9 control     2     1         1.13
    ## 10 control     2     2        -0.88
    ## # … with 150 more rows
…
``` r
sim_mu_final %>% 
  mutate( mu = as.factor(mu))
```

    ## # A tibble: 35,000 x 3
    ##    mu    mu_hat p.value
    ##    <fct>  <dbl>   <dbl>
    ##  1 0      0.520   0.549
    ##  2 0      1.11    0.188
    ##  3 0      1.01    0.220
    ##  4 0     -0.835   0.309
    ##  5 0     -0.892   0.365
    ##  6 0      0.557   0.503
    ##  7 0      1.04    0.238
    ##  8 0      1.40    0.144
    ##  9 0      1.15    0.180
    ## 10 0     -0.500   0.634
    ## # … with 34,990 more rows
…
